{
  "isOpenSource": true,
  "header": {
    "path": "logo.png"
  },
  "footer": {
    "text": "&copy; by Beawre Digital S.L. for Enact Consortium"
  },
  "risksDictionaryPath": "risksDictionary.json",
  "router": {
    "defaultRoute": "/assets",
    "paths": [
      {
        "path": "/assets",
        "title": "Assets.title",
        "component": "AssetsPage"
      },
      {
        "path": "/assets/analysis/:componentId",
        "title": "Assets.analysis.title",
        "component": "AssetsAnalysisPage"
      },
      {
        "path": "/settings",
        "title": "Settings.title",
        "component": "SettingsPage"
      }
    ],
    "menus": [
      {
        "key": "assets",
        "to": "/assets",
        "icon": "inbox",
        "title": "Assets.title"
      }
    ]
  },
  "colorSchema": {},
  "pages": {
    "assets": {
      "title": "Assets.pageTitle",
      "component": "AssetsPage",
      "layout": {
        "tabs": [
          {
            "icon": "dot-chart",
            "title": "Assets.graph",
            "key": "graph",
            "components": {
              "ggeditor": {
                "toolbarItems": [
                  { "type": "button", "command": "undo" },
                  { "type": "button", "command": "redo" },
                  { "type": "divider" },
                  { "type": "button", "command": "copy" },
                  { "type": "button", "command": "paste" },
                  { "type": "button", "command": "delete" },
                  { "type": "divider" },
                  { "type": "button", "command": "zoomIn", "icon": "zoom-in", "text": "Zoom In" },
                  { "type": "button", "command": "zoomOut", "icon": "zoom-out", "text": "Zoom Out" },
                  { "type": "button", "command": "autoZoom", "icon": "fit-map", "text": "Fit map" },
                  { "type": "button", "command": "resetZoom", "icon": "actual-size", "text": "Actual size" },
                  { "type": "divider" },
                  { "type": "button", "command": "toBack", "icon": "to-back", "text": "To back" },
                  { "type": "button", "command": "toFront", "icon": "to-front", "text": "To front" },
                  { "type": "divider" },
                  { "type": "button", "command": "multiSelect", "icon": "multi-select", "text": "Multi select" },
                  { "type": "button", "command": "addGroup", "icon": "group", "text": "Add group" },
                  { "type": "button", "command": "unGroup", "icon": "ungroup", "text": "Ungroup" }
                ]
              }
            }
          },
          { "icon": "table", "title": "Assets.list", "key": "list", "components": { "assetList": {} } },
          {
            "icon": "sliders",
            "title": "Assets.kanban",
            "key": "kanban",
            "components": {
              "assetkanban": {
                "columns": [
                  { "id": "definition", "title": "Definition" },
                  { "id": "vulnerabilities", "title": "Vulnerabilities" },
                  { "id": "unwantedIncidents", "title": "Unwanted Incidents" },
                  { "id": "lc", "title": "Likelihood & Impact" },
                  { "id": "treatments", "title": "Treatments Definition" },
                  { "id": "monitoring", "title": "Monitoring" }
                ],
                "columnsOrder": ["definition", "vulnerabilities", "unwantedIncidents", "lc", "treatments", "monitoring"]
              }
            }
          }
        ]
      }
    },
    "assetsAnalytics": {
      "title": "Assets.analysis.pageTitle",
      "layout": {
        "collapse": ["vulnerabilities", "risks", "treatments"]
      }
    }
  }
}
