{
  "list": [
    "Clickjacking Attack against Authorization",
    "Resource Owner Impersonation",
    "DoS Attacks That Exhaust Resources",
    "DoS Using Manufactured Authorization 'codes'",
    "Code Substitution (OAuth Login)",
    "Access Token Leak in Transport/Endpoints",
    "Access Token Leak in Browser History",
    "Malicious Client Obtains Authorization",
    "CSRF Attack against redirect-uri",
    "Token Substitution (OAuth Login)",
    "Client Obtains Scopes without End-User Authorization"
  ]
}
